{
  "ColumnOne":{
    "id":0,
    "title":"About",
    "subTitle":"Saving you time, stop going from place to place buying/selling tickets",
    "socialIcons":[
      {
        "href":"/#/home",
        "classFormat":"theme-line-64",
        "icon":"/static/icons/gcx_sprite/gcx-sprite.svg#headphones-user-1",
        "title":"",
        "height": 34,
        "width": 34
      },
      {
        "href":"/#/home",
        "classFormat":"theme-color-1057",
        "icon":"/static/icons/gcx_sprite/gcx-sprite.svg#snapchat-1",
        "title":"",
        "height": 34,
        "width": 34
      },
      {
        "href":"https://youtube.com",
        "classFormat":"theme-color-1052",
        "icon":"/static/icons/gcx_sprite/gcx-sprite.svg#youtube-1",
        "title":"",
        "height": 34,
        "width": 34
      },
      {
        "href":"/#/home",
        "classFormat":"theme-color-1064",
        "icon":"/static/icons/gcx_sprite/gcx-sprite.svg#instagram-1",
        "title":"",
        "height": 34,
        "width": 34
      },
      {
        "href":"/#/home",
        "classFormat":"theme-color-1025",
        "icon":"/static/icons/gcx_sprite/gcx-sprite.svg#twitter-1",
        "title":"",
        "height": 34,
        "width": 34
      }
    ]
  },
  "ColumnTwo":{
    "id":0,
    "title":"Our Recent Posts",
    "subTitle":"",
    "posts":[
      {
        "id":0,
        "title":"Est mirabilis valebat, cesaris.",
        "date":"2019-Mar-03",
        "href":"#",
        "classFormat":"post-title",
        "photo":"/static/images/faces/face-4.jpg"
      },
      {
        "id":1,
        "title":"Heu, epos!",
        "date":"2019-Mar-03",
        "href":"#",
        "classFormat":"post-title",
        "photo":"/static/images/faces/face-2.jpg"
      },
      {
        "id":2,
        "title":"Domesticus calcaria diligenter.",
        "date":"2019-Mar-03",
        "href":"#",
        "classFormat":"post-title",
        "photo":"/static/images/faces/face-3.jpg"
      }
    ]
  },
  "ColumnThree":{
    "id":0,
    "title":"Contact",
    "subTitle":"One parallel light i give you: hurt each other.",
    "contactInfo":[
      {
        "href":"#",
        "classFormat":"mdi mdi-map-marker",
        "title":"Windsor, CT. 06095",
        "lineType":"address"
      },
      {
        "href":"#",
        "classFormat":"mdi mdi-map-marker",
        "title":"123 Main St",
        "lineType":"address"
      },
      {
        "href":"#",
        "classFormat":"mdi mdi-email",
        "title":"info@example.com",
        "lineType":"email"
      },
      {
        "href":"#",
        "classFormat":"mdi mdi-phone-classic",
        "title":"800-SUPPORT",
        "lineType":"support"
      },
      {
        "href":"#",
        "classFormat":"mdi mdi-cellphone-iphone",
        "title":"860-555-1212",
        "lineType":"support"
      }
    ]
  },
  "ColumnFour":{
    "id":0,
    "title":"Useful Links",
    "subTitle":"none",
    "links": [
      {
        "href":"/#/home",
        "classFormat":"none",
        "title":"home"
      },
      {
        "href":"/#/home",
        "classFormat":"none",
        "title":"home"
      },
      {
        "href":"/#/home",
        "classFormat":"none",
        "title":"home"
      },
      {
        "href":"/#/home",
        "classFormat":"none",
        "title":"home"
      },
      {
        "href":"/#/home",
        "classFormat":"none",
        "title":"home"
      }
    ]
  }
}

