{
    "appname": "Tricll-Kaydee",
    "time_block": {
        "before": 10,
        "after": 30,
        "duration": 30,
        "date_time": "2020-11-15T11:20:00Z",
        "time_zone": "EST",
        "time_open": "10:00AM",
        "time_close": "16:30PM"
    },
    "hash": "NjePAnBRXowJ",
    "client_name": "James Dean",
    "client_email": "james.dean@txtsme.com",
    "client_number": "8605551212"
}