<svg xmlns="http://www.w3.org/2000/svg" viewBox="0 0 64 64" aria-labelledby="title"
aria-describedby="desc" role="img" xmlns:xlink="http://www.w3.org/1999/xlink">
  <title>Arrow Right Down</title>
  <desc>A line styled icon from Orion Icon Library.</desc>
  <path data-name="layer1"
  fill="none" stroke="#003399" stroke-miterlimit="10" stroke-width="2" d="M37.756 42H25.001v6H48V25.001h-6v12.758L22.243 18.002 18 22.244 37.756 42z"
  stroke-linejoin="round" stroke-linecap="round"></path>
</svg>