<svg xmlns="http://www.w3.org/2000/svg" viewBox="0 0 64 64" aria-labelledby="title"
aria-describedby="desc" role="img" xmlns:xlink="http://www.w3.org/1999/xlink">
  <title>Arrow Left Up</title>
  <desc>A line styled icon from Orion Icon Library.</desc>
  <path data-name="layer1"
  fill="none" stroke="#003399" stroke-miterlimit="10" stroke-width="2" d="M28.244 22h12.755v-6H18v22.998h6V26.241l19.757 19.757L48 41.755 28.244 22z"
  stroke-linejoin="round" stroke-linecap="round"></path>
</svg>