<svg xmlns="http://www.w3.org/2000/svg" viewBox="0 0 64 64" aria-labelledby="title"
aria-describedby="desc" role="img" xmlns:xlink="http://www.w3.org/1999/xlink">
  <title>Bank Check</title>
  <desc>A line styled icon from Orion Icon Library.</desc>
  <path data-name="layer2"
  d="M26.1 16.8l9.7-9.7a3.7 3.7 0 0 1 5.2 0l1.3 1.3m-8.8 8.8l5.3 5.3" fill="none"
  stroke="#33cc33" stroke-miterlimit="10" stroke-width="2" stroke-linejoin="round"
  stroke-linecap="round"></path>
  <path data-name="layer2" d="M48.9 12.4a3.8 3.8 0 0 0-5.3-5.3L13.2 37.4 10 46l8.6-3.3 30.3-30.3z"
  fill="none" stroke="#33cc33" stroke-miterlimit="10" stroke-width="2" stroke-linejoin="round"
  stroke-linecap="round"></path>
  <path data-name="layer1" fill="none" stroke="#003399" stroke-miterlimit="10"
  stroke-width="2" d="M37.3 24H62v34H2V24h24.7M54 40H38.1M54 48H28.1" stroke-linejoin="round"
  stroke-linecap="round"></path>
</svg>