<svg xmlns="http://www.w3.org/2000/svg" viewBox="0 0 64 64" aria-labelledby="title"
aria-describedby="desc" role="img" xmlns:xlink="http://www.w3.org/1999/xlink">
  <title>Bitcoin Sign</title>
  <desc>A line styled icon from Orion Icon Library.</desc>
  <path data-name="layer2"
  d="M24 30h12a6.8 6.8 0 0 0 7-7 6.8 6.8 0 0 0-7-7H24v32h12.7c4.8 0 9.3-4.2 9.3-9s-5.2-9-10-9m-8-14v-4m6 4v-4m-6 40v-4m6 4v-4"
  fill="none" stroke="#33cc33" stroke-miterlimit="10" stroke-width="2" stroke-linejoin="round"
  stroke-linecap="round"></path>
  <ellipse data-name="layer1" cx="32" cy="32" rx="30" ry="30" fill="none"
  stroke="#003399" stroke-miterlimit="10" stroke-width="2" stroke-linejoin="round"
  stroke-linecap="round"></ellipse>
</svg>