<svg xmlns="http://www.w3.org/2000/svg" viewBox="0 0 64 64" aria-labelledby="title"
aria-describedby="desc" role="img" xmlns:xlink="http://www.w3.org/1999/xlink">
  <title>Box</title>
  <desc>A line styled icon from Orion Icon Library.</desc>
  <path data-name="layer2"
  fill="none" stroke="#33cc33" stroke-miterlimit="10" stroke-width="2" d="M2 62V20L14 2h36l12 18v42H2zm0-42h60"
  stroke-linejoin="round" stroke-linecap="round"></path>
  <path data-name="layer1" d="M46 34a4 4 0 0 1-4 4H22a4 4 0 0 1-4-4 4 4 0 0 1 4-4h20a4 4 0 0 1 4 4z"
  fill="none" stroke="#003399" stroke-miterlimit="10" stroke-width="2" stroke-linejoin="round"
  stroke-linecap="round"></path>
</svg>