<svg xmlns="http://www.w3.org/2000/svg" viewBox="0 0 64 64" aria-labelledby="title"
aria-describedby="desc" role="img" xmlns:xlink="http://www.w3.org/1999/xlink">
  <title>Cash Register Till</title>
  <desc>A line styled icon from Orion Icon Library.</desc>
  <path data-name="layer2"
  fill="none" stroke="#33cc33" stroke-miterlimit="10" stroke-width="2" d="M32 4h16v8H32zm8 14v-6m4 14H20"
  stroke-linejoin="round" stroke-linecap="round"></path>
  <path data-name="layer1" fill="none" stroke="#003399" stroke-miterlimit="10"
  stroke-width="2" d="M2 52l10-18h40l10 18M2 52h60v8H2zm10-18V20a2 2 0 0 1 2-2h36a2 2 0 0 1 2 2v14m-20 6h16m-16 6h20"
  stroke-linejoin="round" stroke-linecap="round"></path>
</svg>