<svg xmlns="http://www.w3.org/2000/svg" viewBox="0 0 64 64" aria-labelledby="title"
aria-describedby="desc" role="img" xmlns:xlink="http://www.w3.org/1999/xlink">
  <title>Compact Camera</title>
  <desc>A line styled icon from Orion Icon Library.</desc>
  <circle data-name="layer1"
  cx="42" cy="34" r="14" fill="none" stroke="#003399" stroke-miterlimit="10"
  stroke-width="2" stroke-linejoin="round" stroke-linecap="round"></circle>
  <path data-name="layer1" fill="none" stroke="#003399" stroke-miterlimit="10"
  stroke-width="2" d="M38 30h8v8h-8z" stroke-linejoin="round" stroke-linecap="round"></path>
  <rect data-name="layer3" x="2" y="14" width="60" height="40" rx="2"
  ry="2" fill="none" stroke="#003399" stroke-miterlimit="10" stroke-width="2"
  stroke-linejoin="round" stroke-linecap="round"></rect>
  <path data-name="layer2" fill="none" stroke="#33cc33" stroke-miterlimit="10"
  stroke-width="2" d="M10 14V8h10v6" stroke-linejoin="round" stroke-linecap="round"></path>
  <path data-name="layer1" fill="none" stroke="#003399" stroke-miterlimit="10"
  stroke-width="2" d="M18 22v24" stroke-linejoin="round" stroke-linecap="round"></path>
</svg>