<svg xmlns="http://www.w3.org/2000/svg" viewBox="0 0 64 64" aria-labelledby="title"
aria-describedby="desc" role="img" xmlns:xlink="http://www.w3.org/1999/xlink">
  <title>Delete</title>
  <desc>A line styled icon from Orion Icon Library.</desc>
  <path data-name="layer1"
  fill="none" stroke="#003399" stroke-miterlimit="10" stroke-width="2" d="M44 26l-4-4-7 7-7-7-4 4 7 7-7 7 4 4 7-7 7 7 4-4-7-7 7-7z"
  stroke-linejoin="round" stroke-linecap="round"></path>
</svg>