<svg viewBox="0 0 64 64" xmlns="http://www.w3.org/2000/svg" aria-labelledby="title"
aria-describedby="desc" role="img" xmlns:xlink="http://www.w3.org/1999/xlink">
  <title>Dish Radio Antenna</title>
  <desc>A line styled icon from Orion Icon Library.</desc>
  <path stroke-width="2"
  stroke-miterlimit="10" stroke="#33cc33" fill="none" d="M52.582 44.334A26.263 26.263 0 0 1 15.441 7.192z"
  data-name="layer2" stroke-linejoin="round" stroke-linecap="round"></path>
  <path d="M27.469 51.2l5.4 10.8H5l9.689-18.451" stroke-width="2"
  stroke-miterlimit="10" stroke="#33cc33" fill="none" data-name="layer2"
  stroke-linejoin="round" stroke-linecap="round"></path>
  <path d="M34.984 26.735l8.735-8.734m0-8.001a8 8 0 0 1 8 8m-8-16a16 16 0 0 1 16 16"
  stroke-width="2" stroke-miterlimit="10" stroke="#003399" fill="none" data-name="layer1"
  stroke-linejoin="round" stroke-linecap="round"></path>
</svg>