<svg viewBox="0 0 64 64" xmlns="http://www.w3.org/2000/svg" aria-labelledby="title"
aria-describedby="desc" role="img" xmlns:xlink="http://www.w3.org/1999/xlink">
  <title>Edit</title>
  <desc>A line styled icon from Orion Icon Library.</desc>
  <path stroke-width="2"
  stroke-miterlimit="10" stroke="#33cc33" fill="none" d="M58.4 18.77l.941-.941c3.637-3.638 2.7-8.595-.941-12.233s-8.6-4.58-12.234-.94l-.941.941"
  data-name="layer2" stroke-linejoin="round" stroke-linecap="round"></path>
  <path d="M52.639 24.535l5.766-5.765L45.229 5.596l-5.764 5.764"
  stroke-width="2" stroke-miterlimit="10" stroke="#003399" fill="none" data-name="layer1"
  stroke-linejoin="round" stroke-linecap="round"></path>
  <path d="M19.582 57.59l33.057-33.055L39.465 11.36 6.409 44.416 2.352 61.649l17.23-4.059zM6.409 44.416L19.582 57.59"
  stroke-width="2" stroke-miterlimit="10" stroke="#003399" fill="none" data-name="layer1"
  stroke-linejoin="round" stroke-linecap="round"></path>
</svg>