<svg xmlns="http://www.w3.org/2000/svg" viewBox="0 0 64 64" aria-labelledby="title"
aria-describedby="desc" role="img" xmlns:xlink="http://www.w3.org/1999/xlink">
  <title>Electricity</title>
  <desc>A line styled icon from Orion Icon Library.</desc>
  <path data-name="layer1"
  fill="none" stroke="#003399" stroke-miterlimit="10" stroke-width="2" d="M34.7 8l-22 28.5h19.6L28.7 56l22.6-31.5h-19L34.7 8z"
  stroke-linejoin="round" stroke-linecap="round"></path>
</svg>