<svg xmlns="http://www.w3.org/2000/svg" viewBox="0 0 64 64" aria-labelledby="title"
aria-describedby="desc" role="img" xmlns:xlink="http://www.w3.org/1999/xlink">
  <title>Error Cart</title>
  <desc>A line styled icon from Orion Icon Library.</desc>
  <path data-name="layer2"
  fill="none" stroke="#33cc33" stroke-miterlimit="10" stroke-width="2" d="M34.3 25H12M2 9h6l10 40h32l5.2-16"
  stroke-linejoin="round" stroke-linecap="round"></path>
  <circle data-name="layer2" cx="20" cy="57" r="4" fill="none" stroke="#33cc33"
  stroke-miterlimit="10" stroke-width="2" stroke-linejoin="round" stroke-linecap="round"></circle>
  <circle data-name="layer2" cx="46" cy="57" r="4" fill="none"
  stroke="#33cc33" stroke-miterlimit="10" stroke-width="2" stroke-linejoin="round"
  stroke-linecap="round"></circle>
  <path data-name="layer1" fill="none" stroke="#003399" stroke-miterlimit="10"
  stroke-width="2" d="M30 33L46 3l16 30H30zm16-18v6" stroke-linejoin="round"
  stroke-linecap="round"></path>
  <circle data-name="layer1" cx="46" cy="26" r="1" fill="none" stroke="#003399"
  stroke-miterlimit="10" stroke-width="2" stroke-linejoin="round" stroke-linecap="round"></circle>
</svg>