<svg xmlns="http://www.w3.org/2000/svg" viewBox="0 0 64 64" aria-labelledby="title"
aria-describedby="desc" role="img" xmlns:xlink="http://www.w3.org/1999/xlink">
  <title>Extend</title>
  <desc>A line styled icon from Orion Icon Library.</desc>
  <path data-name="layer2"
  d="M30 14.892V28h5.995l.001-13.113 2.765 3.11a3 3 0 1 0 4.484-3.988L33.003 2.003 22.76 14.01a3 3 0 1 0 4.485 3.984z"
  fill="none" stroke="#33cc33" stroke-miterlimit="10" stroke-width="2" stroke-linejoin="round"
  stroke-linecap="round"></path>
  <path data-name="layer1" d="M43.24 49.982a3 3 0 0 0-4.486-3.984l-2.762 3.108L35.994 36H30v13.113L27.24 46a3 3 0 1 0-4.487 3.98l10.25 12.023z"
  fill="none" stroke="#003399" stroke-miterlimit="10" stroke-width="2" stroke-linejoin="round"
  stroke-linecap="round"></path>
</svg>