<svg xmlns="http://www.w3.org/2000/svg" viewBox="0 0 64 64" aria-labelledby="title"
aria-describedby="desc" role="img" xmlns:xlink="http://www.w3.org/1999/xlink">
  <title>Hand Purse</title>
  <desc>A line styled icon from Orion Icon Library.</desc>
  <path data-name="layer2"
  d="M14 22v-2a18 18 0 0 1 36 0v2" fill="none" stroke="#33cc33" stroke-miterlimit="10"
  stroke-width="2" stroke-linejoin="round" stroke-linecap="round"></path>
  <path data-name="layer1" d="M54 22H10S4 44 4 50a12 12 0 0 0 12 12h32a12 12 0 0 0 12-12c0-6-6-28-6-28z"
  fill="none" stroke="#003399" stroke-miterlimit="10" stroke-width="2" stroke-linejoin="round"
  stroke-linecap="round"></path>
  <path data-name="layer1" fill="none" stroke="#003399" stroke-miterlimit="10"
  stroke-width="2" d="M16 32h32v6" stroke-linejoin="round" stroke-linecap="round"></path>
</svg>