<svg xmlns="http://www.w3.org/2000/svg" viewBox="0 0 64 64" aria-labelledby="title"
aria-describedby="desc" role="img" xmlns:xlink="http://www.w3.org/1999/xlink">
  <title>Image Sync</title>
  <desc>A line styled icon from Orion Icon Library.</desc>
  <path data-name="layer2"
  fill="none" stroke="#33cc33" stroke-miterlimit="10" stroke-width="2" d="M2 46h30.4m3.8 12H2V2h48v37"
  stroke-linejoin="round" stroke-linecap="round"></path>
  <path data-name="layer1" fill="none" stroke="#003399" stroke-miterlimit="10"
  stroke-width="2" d="M62 50l-4.8 4.8-4.8-4.8M38 50l-4.8-4.8-4.8 4.8" stroke-linejoin="round"
  stroke-linecap="round"></path>
  <path data-name="layer1" d="M34 46a12.1 12.1 0 0 0 2.8 12.5 11.8 11.8 0 0 0 14.1 2.1m5.5-6.6a12.1 12.1 0 0 0-2.8-12.5 11.8 11.8 0 0 0-14.1-2.1"
  fill="none" stroke="#003399" stroke-miterlimit="10" stroke-width="2" stroke-linejoin="round"
  stroke-linecap="round"></path>
</svg>