<svg xmlns="http://www.w3.org/2000/svg" viewBox="0 0 64 64" aria-labelledby="title"
aria-describedby="desc" role="img" xmlns:xlink="http://www.w3.org/1999/xlink">
  <title>Infinity</title>
  <desc>A line styled icon from Orion Icon Library.</desc>
  <path data-name="layer1"
  d="M48.002 18.02a13.988 13.988 0 1 1 0 27.976m-32.002 0a13.988 13.988 0 1 1 0-27.976m0 27.976c15.998 0 16.008-27.976 32.002-27.976M37.12 40.003c2.772 3.487 6.117 5.97 10.882 5.97M16 17.996c4.788 0 8.144 2.506 10.924 6.02"
  fill="none" stroke="#003399" stroke-miterlimit="10" stroke-width="2" stroke-linejoin="round"
  stroke-linecap="round"></path>
</svg>