<svg xmlns="http://www.w3.org/2000/svg" viewBox="0 0 64 64" aria-labelledby="title"
aria-describedby="desc" role="img" xmlns:xlink="http://www.w3.org/1999/xlink">
  <title>Key</title>
  <desc>A line styled icon from Orion Icon Library.</desc>
  <path data-name="layer2"
  fill="none" stroke="#33cc33" stroke-miterlimit="10" stroke-width="2" d="M32.5 30l-27 27 5 5m2-12l5 5"
  stroke-linejoin="round" stroke-linecap="round"></path>
  <circle data-name="layer1" cx="51" cy="9.5" r="7.5" transform="rotate(-45 50.936 9.502)"
  fill="none" stroke="#003399" stroke-miterlimit="10" stroke-width="2" stroke-linejoin="round"
  stroke-linecap="round"></circle>
  <circle data-name="layer1" cx="36" cy="14.5" r="7.5" transform="rotate(-45 36.001 14.488)"
  fill="none" stroke="#003399" stroke-miterlimit="10" stroke-width="2" stroke-linejoin="round"
  stroke-linecap="round"></circle>
  <circle data-name="layer1" cx="48" cy="25.5" r="7.5" transform="rotate(-45 47.974 25.528)"
  fill="none" stroke="#003399" stroke-miterlimit="10" stroke-width="2" stroke-linejoin="round"
  stroke-linecap="round"></circle>
  <path data-name="layer1" fill="none" stroke="#003399" stroke-miterlimit="10"
  stroke-width="2" d="M41.5 29.3L36.8 34l-8.3-8.3 4.4-4.4" stroke-linejoin="round"
  stroke-linecap="round"></path>
</svg>