<svg xmlns="http://www.w3.org/2000/svg" viewBox="0 0 64 64" aria-labelledby="title"
aria-describedby="desc" role="img" xmlns:xlink="http://www.w3.org/1999/xlink">
  <title>Lanyrd</title>
  <desc>A color styled icon from Orion Icon Library.</desc>
  <path data-name="layer1"
  d="M53.2 0H10.8A10.755 10.755 0 0 0 0 10.8v42.5A10.734 10.734 0 0 0 10.8 64h42.5A10.734 10.734 0 0 0 64 53.2V10.8A10.755 10.755 0 0 0 53.2 0zm-.5 50.5c-7.1 2.3-20.9 6.9-23.5 7.5s-5.2 1.7-6.8-2.6c0 0-12.7-37.7-13.9-41-1.1-3.3-2.2-5.3.4-6.4C15 5.6 21.3 2.5 22.5 6c1 3.2 12.2 38 12.2 38s13.1-4.6 16.7-5.6 4.8-1.7 5.8 3.2c.8 5 2.6 6.5-4.5 8.9z"
  fill="#3c80cb"></path>
</svg>