<svg xmlns="http://www.w3.org/2000/svg" viewBox="0 0 64 64" aria-labelledby="title"
aria-describedby="desc" role="img" xmlns:xlink="http://www.w3.org/1999/xlink">
  <title>Loop</title>
  <desc>A line styled icon from Orion Icon Library.</desc>
  <path data-name="layer2"
  d="M48 17.997A14.002 14.002 0 0 1 48 46m-32.001 0a14.002 14.002 0 0 1 0-28.003m0 28.003C31.997 46 32.007 17.997 48 17.997M37.118 40.002c2.773 3.489 6.118 5.975 10.883 5.975M15.999 17.974c4.788 0 8.265 3.121 11.001 6.026"
  fill="none" stroke="#33cc33" stroke-miterlimit="10" stroke-width="2" stroke-linejoin="round"
  stroke-linecap="round"></path>
  <path data-name="layer1" fill="none" stroke="#003399" stroke-miterlimit="10"
  stroke-width="2" d="M23.992 12L27 24l-11.001 2.002" stroke-linejoin="round"
  stroke-linecap="round"></path>
</svg>