<svg xmlns="http://www.w3.org/2000/svg" viewBox="0 0 64 64" aria-labelledby="title"
aria-describedby="desc" role="img" xmlns:xlink="http://www.w3.org/1999/xlink">
  <title>Movie Clapperboard</title>
  <desc>A line styled icon from Orion Icon Library.</desc>
  <path data-name="layer2"
  fill="none" stroke="#33cc33" stroke-miterlimit="10" stroke-width="2" d="M12 51h40"
  stroke-linejoin="round" stroke-linecap="round"></path>
  <path data-name="layer1" fill="none" stroke="#003399" stroke-miterlimit="10"
  stroke-width="2" d="M18 23l-8 8m.6-18l9.5 6.2m6.2-9.5l9.5 6.1m5.6-9.3l9.6 6.1M36 23l-8 8m26-8l-8 8m16 0v-8H2v8"
  stroke-linejoin="round" stroke-linecap="round"></path>
  <path data-name="layer2" fill="none" stroke="#33cc33" stroke-miterlimit="10"
  stroke-width="2" d="M2 31h60v28H2z" stroke-linejoin="round" stroke-linecap="round"></path>
  <path data-name="layer1" d="M59.1 2.7L8 13.6C.7 15.1 2.1 23 2.1 23l58.7-12.5z"
  fill="none" stroke="#003399" stroke-miterlimit="10" stroke-width="2" stroke-linejoin="round"
  stroke-linecap="round"></path>
</svg>