<svg xmlns="http://www.w3.org/2000/svg" viewBox="0 0 64 64" aria-labelledby="title"
aria-describedby="desc" role="img" xmlns:xlink="http://www.w3.org/1999/xlink">
  <title>Navigation Right</title>
  <desc>A line styled icon from Orion Icon Library.</desc>
  <path data-name="layer1"
  d="M22 21a2.99 2.99 0 0 0 .879 2.121l8.636 8.89-8.636 8.868a3 3 0 0 0 4.242 4.242L40 32.011 27.121 18.879A3 3 0 0 0 22 21z"
  fill="none" stroke="#003399" stroke-miterlimit="10" stroke-width="2" stroke-linejoin="round"
  stroke-linecap="round"></path>
</svg>