<svg xmlns="http://www.w3.org/2000/svg" viewBox="0 0 64 64" aria-labelledby="title"
aria-describedby="desc" role="img" xmlns:xlink="http://www.w3.org/1999/xlink">
  <title>Package Delivered</title>
  <desc>A line styled icon from Orion Icon Library.</desc>
  <path data-name="layer2"
  fill="none" stroke="#33cc33" stroke-miterlimit="10" stroke-width="2" d="M30.5 50H2V16.4L11.6 2h28.8L50 16.4v14.1M2.3 16h47.4M26 2v14"
  stroke-linejoin="round" stroke-linecap="round"></path>
  <circle data-name="layer1" cx="46" cy="46" r="16" fill="none" stroke="#003399"
  stroke-miterlimit="10" stroke-width="2" stroke-linejoin="round" stroke-linecap="round"></circle>
  <path data-name="layer1" fill="none" stroke="#003399" stroke-miterlimit="10"
  stroke-width="2" d="M53 42.1l-8 9-5-5" stroke-linejoin="round" stroke-linecap="round"></path>
</svg>