<svg xmlns="http://www.w3.org/2000/svg" viewBox="0 0 64 64" aria-labelledby="title"
aria-describedby="desc" role="img" xmlns:xlink="http://www.w3.org/1999/xlink">
  <title>Photo Camera</title>
  <desc>A line styled icon from Orion Icon Library.</desc>
  <path data-name="layer2"
  fill="none" stroke="#33cc33" stroke-miterlimit="10" stroke-width="2" d="M55 17v-6h-9v6"
  stroke-linejoin="round" stroke-linecap="round"></path>
  <path data-name="layer2" d="M5 17h2.4L14 9h16l6.6 8H59a3 3 0 0 1 3 3v30a3 3 0 0 1-3 3H5a3 3 0 0 1-3-3V20a3 3 0 0 1 3-3z"
  fill="none" stroke="#33cc33" stroke-miterlimit="10" stroke-width="2" stroke-linejoin="round"
  stroke-linecap="round"></path>
  <circle data-name="layer1" cx="46" cy="37" r="8" fill="none" stroke="#003399"
  stroke-miterlimit="10" stroke-width="2" stroke-linejoin="round" stroke-linecap="round"></circle>
  <path data-name="layer1" fill="none" stroke="#003399" stroke-miterlimit="10"
  stroke-width="2" d="M10 27h20v18H10z" stroke-linejoin="round" stroke-linecap="round"></path>
  <circle data-name="layer1" cx="46" cy="37" r="1" fill="none" stroke="#003399"
  stroke-miterlimit="10" stroke-width="2" stroke-linejoin="round" stroke-linecap="round"></circle>
</svg>