<svg viewBox="0 0 64 64" xmlns="http://www.w3.org/2000/svg" aria-labelledby="title"
aria-describedby="desc" role="img" xmlns:xlink="http://www.w3.org/1999/xlink">
  <title>Pinch Diagonal</title>
  <desc>A line styled icon from Orion Icon Library.</desc>
  <path d="M57 11l-4-4-13 12.9V15h-6v15h15v-6h-4.6L57 11z"
  stroke-width="2" stroke-miterlimit="10" stroke-linecap="round" stroke="#33cc33"
  fill="none" data-name="layer2" stroke-linejoin="round"></path>
  <path d="M15 40h4.9L7 53l4 4 13-12.6V49h6V34H15v6z" stroke-width="2"
  stroke-miterlimit="10" stroke-linecap="round" stroke="#003399" fill="none"
  data-name="layer1" stroke-linejoin="round"></path>
</svg>