<svg xmlns="http://www.w3.org/2000/svg" viewBox="0 0 64 64" aria-labelledby="title"
aria-describedby="desc" role="img" xmlns:xlink="http://www.w3.org/1999/xlink">
  <title>Pinterest</title>
  <desc>A color styled icon from Orion Icon Library.</desc>
  <path data-name="layer1"
  d="M32-.006a32.017 32.017 0 0 0-12.7 61.4 26.36 26.36 0 0 1 .6-7.3c.6-2.6 4.1-17.5 4.1-17.5a12.937 12.937 0 0 1-1-5.1c0-4.8 2.8-8.3 6.2-8.3 2.9 0 4.3 2.2 4.3 4.8 0 2.9-1.9 7.3-2.8 11.4a4.989 4.989 0 0 0 5.1 6.2c6.1 0 10.2-7.8 10.2-17.1 0-7-4.7-12.3-13.4-12.3-9.7 0-15.8 7.3-15.8 15.4a9.176 9.176 0 0 0 2.1 6.3 1.605 1.605 0 0 1 .5 1.8c-.2.6-.5 2-.7 2.6a1.11 1.11 0 0 1-1.6.8c-4.5-1.8-6.6-6.7-6.6-12.3 0-9.1 7.7-20.1 23-20.1 12.3 0 20.3 8.9 20.3 18.4 0 12.6-7 22-17.3 22-3.5 0-6.7-1.9-7.8-4 0 0-1.9 7.4-2.3 8.8a28.406 28.406 0 0 1-3.2 6.8 28.4 28.4 0 0 0 8.8 1.3 32 32 0 1 0 0-64z"
  fill="#9f1121"></path>
</svg>