<svg xmlns="http://www.w3.org/2000/svg" viewBox="0 0 64 64" aria-labelledby="title"
aria-describedby="desc" role="img" xmlns:xlink="http://www.w3.org/1999/xlink">
  <title>Rating</title>
  <desc>A line styled icon from Orion Icon Library.</desc>
  <path data-name="layer2"
  fill="none" stroke="#33cc33" stroke-miterlimit="10" stroke-width="2" d="M32 35.2l-9.9 7.1 3.8-11.5-9.9-6.7h12.2l3.8-12 3.8 12H48l-9.9 6.7 3.8 11.5-9.9-7.1z"
  stroke-linejoin="round" stroke-linecap="round"></path>
  <path data-name="layer1" d="M6 2.1h52v22a41.8 41.8 0 0 1-26 37.8A41.8 41.8 0 0 1 6 24.1z"
  fill="none" stroke="#003399" stroke-miterlimit="10" stroke-width="2" stroke-linejoin="round"
  stroke-linecap="round"></path>
</svg>