<svg xmlns="http://www.w3.org/2000/svg" viewBox="0 0 64 64" aria-labelledby="title"
aria-describedby="desc" role="img" xmlns:xlink="http://www.w3.org/1999/xlink">
  <title>Read Receipt Email</title>
  <desc>A line styled icon from Orion Icon Library.</desc>
  <path data-name="layer2"
  fill="none" stroke="#33cc33" stroke-miterlimit="10" stroke-width="2" d="M38 45H2V9h54v24"
  stroke-linejoin="round" stroke-linecap="round"></path>
  <path data-name="layer2" fill="none" stroke="#33cc33" stroke-miterlimit="10"
  stroke-width="2" d="M2 9l27 20.6L56 9" stroke-linejoin="round" stroke-linecap="round"></path>
  <path data-name="layer1" d="M38 33h24v10.1c0 5.5-3.2 14.3-12 17.9a19.8 19.8 0 0 1-12-17.9z"
  fill="none" stroke="#003399" stroke-miterlimit="10" stroke-width="2" stroke-linejoin="round"
  stroke-linecap="round"></path>
  <path data-name="layer1" fill="none" stroke="#003399" stroke-miterlimit="10"
  stroke-width="2" d="M45 45l4 4 7-8" stroke-linejoin="round" stroke-linecap="round"></path>
</svg>