<svg viewBox="0 0 64 64" xmlns="http://www.w3.org/2000/svg" aria-labelledby="title"
aria-describedby="desc" role="img" xmlns:xlink="http://www.w3.org/1999/xlink">
  <title>Recycle Triangle</title>
  <desc>A line styled icon from Orion Icon Library.</desc>
  <path d="M35 54h25L49.4 33.6M16 31L4 54h19.9"
  stroke-width="2" stroke-miterlimit="10" stroke-linecap="round" stroke="#003399"
  fill="none" data-name="layer1" stroke-linejoin="round"></path>
  <path d="M45 25L32 4 21.6 21.4" stroke-width="2" stroke-miterlimit="10"
  stroke-linecap="round" stroke="#33cc33" fill="none" data-name="layer2"
  stroke-linejoin="round"></path>
  <path d="M43 62l-8-8 8-8" stroke-width="2" stroke-miterlimit="10"
  stroke-linecap="round" stroke="#003399" fill="none" data-name="layer1"
  stroke-linejoin="round"></path>
  <path d="M48 16l-3 9-10-2" stroke-width="2" stroke-miterlimit="10"
  stroke-linecap="round" stroke="#33cc33" fill="none" data-name="layer2"
  stroke-linejoin="round"></path>
  <path d="M6 34l10-3 3 10" stroke-width="2" stroke-miterlimit="10"
  stroke-linecap="round" stroke="#003399" fill="none" data-name="layer1"
  stroke-linejoin="round"></path>
</svg>