<svg xmlns="http://www.w3.org/2000/svg" viewBox="0 0 64 64" aria-labelledby="title"
aria-describedby="desc" role="img" xmlns:xlink="http://www.w3.org/1999/xlink">
  <title>Remove Chat</title>
  <desc>A line styled icon from Orion Icon Library.</desc>
  <path data-name="layer2"
  d="M55.3 32.5a17.6 17.6 0 0 0 .7-4.9C56 15.7 43.9 6 29 6S2 15.7 2 27.6c0 6.1 3.1 11.6 8.2 15.5L4 55l17.6-6.6a33.4 33.4 0 0 0 7.4.8l3.5-.2"
  fill="none" stroke="#33cc33" stroke-linecap="round" stroke-linejoin="round"
  stroke-width="2"></path>
  <path data-name="layer1" fill="none" stroke="#003399" stroke-linecap="round"
  stroke-linejoin="round" stroke-width="2" d="M40 45h14"></path>
  <circle data-name="layer1" cx="47" cy="45" r="15" fill="none" stroke="#003399"
  stroke-linecap="round" stroke-linejoin="round" stroke-width="2"></circle>
</svg>