<svg xmlns="http://www.w3.org/2000/svg" viewBox="0 0 64 64" aria-labelledby="title"
aria-describedby="desc" role="img" xmlns:xlink="http://www.w3.org/1999/xlink">
  <title>Rewind</title>
  <desc>A line styled icon from Orion Icon Library.</desc>
  <path data-name="layer1"
  d="M51.001 14.012L13 14A11.059 11.059 0 0 0 2 25.258V35.88A11.105 11.105 0 0 0 13 47h5v-6h-5a5.037 5.037 0 0 1-5-5.12V25.258A5.055 5.055 0 0 1 13 20h38a5.158 5.158 0 0 1 5 5.258V35.88A5.146 5.146 0 0 1 50.75 41H36.368l4.755-4.76L36.877 32l-12.12 12.133L37 56l4.12-4.002L36.117 47H50.75A11.152 11.152 0 0 0 62 35.88V25.258a11.214 11.214 0 0 0-10.999-11.246z"
  fill="none" stroke="#003399" stroke-miterlimit="10" stroke-width="2" stroke-linejoin="round"
  stroke-linecap="round"></path>
</svg>