<svg xmlns="http://www.w3.org/2000/svg" viewBox="0 0 64 64" aria-labelledby="title"
aria-describedby="desc" role="img" xmlns:xlink="http://www.w3.org/1999/xlink">
  <title>Share</title>
  <desc>A color styled icon from Orion Icon Library.</desc>
  <path data-name="layer1"
  d="M48.2 42.7a10.62 10.62 0 0 0-6.5 2.2L23.1 33.7a11.135 11.135 0 0 0 .2-1.7 8.807 8.807 0 0 0-.2-1.7l18.6-11.1a10.409 10.409 0 0 0 6.5 2.2 10.7 10.7 0 1 0-10.7-10.7 8.807 8.807 0 0 0 .2 1.7L19.1 23.5a10.409 10.409 0 0 0-6.5-2.2 10.7 10.7 0 1 0 6.6 19.2l18.6 11.1a9.853 9.853 0 0 0-.2 1.7 10.7 10.7 0 0 0 21.4 0 10.843 10.843 0 0 0-10.8-10.6z"
  fill="#282828"></path>
</svg>