<svg viewBox="0 0 64 64" xmlns="http://www.w3.org/2000/svg" aria-labelledby="title"
aria-describedby="desc" role="img" xmlns:xlink="http://www.w3.org/1999/xlink">
  <title>Shuffle</title>
  <desc>A line styled icon from Orion Icon Library.</desc>
  <path d="M53 24l8-8-8-8"
  stroke-width="2" stroke-miterlimit="10" stroke-linecap="round" stroke="#33cc33"
  fill="none" data-name="layer2" stroke-linejoin="round"></path>
  <path d="M53 54l8-8-8-8" stroke-width="2" stroke-miterlimit="10"
  stroke-linecap="round" stroke="#003399" fill="none" data-name="layer1"
  stroke-linejoin="round"></path>
  <path stroke-width="2" stroke-miterlimit="10" stroke-linecap="round"
  stroke="#33cc33" fill="none" d="M61 16H47c-4 0-7 1-9 4L22 42c-3 4-5 4-9 4H2"
  data-name="layer2" stroke-linejoin="round"></path>
  <path stroke-width="2" stroke-miterlimit="10" stroke-linecap="round"
  stroke="#003399" fill="none" d="M27.1 27L22 20c-3-4-5-4-9-4H2m59 30H47c-4 0-7-1-9-4l-5-6"
  data-name="layer1" stroke-linejoin="round"></path>
</svg>