<svg xmlns="http://www.w3.org/2000/svg" viewBox="0 0 64 64" aria-labelledby="title"
aria-describedby="desc" role="img" xmlns:xlink="http://www.w3.org/1999/xlink">
  <title>Speaker Call</title>
  <desc>A line styled icon from Orion Icon Library.</desc>
  <path data-name="layer2"
  d="M50.4 49.3c1.1.8 2.9 1.8 2.6 4.2S49.1 62 41.5 62s-17-6-25.2-14.2S2 30.2 2 22.5 8.8 11.3 10.5 11s3.4 1.5 4.2 2.6l5.8 8.8a4.1 4.1 0 0 1-1.1 5.6c-2.5 2-6.6 4.5 2.8 13.8S34 47.1 36 44.6a4.1 4.1 0 0 1 5.6-1.1z"
  fill="none" stroke="#33cc33" stroke-miterlimit="10" stroke-width="2" stroke-linejoin="round"
  stroke-linecap="round"></path>
  <path data-name="layer1" d="M30 2a32 32 0 0 1 32 32M30 12a22 22 0 0 1 22 22M30 23a11 11 0 0 1 11 11"
  fill="none" stroke="#003399" stroke-miterlimit="10" stroke-width="2" stroke-linejoin="round"
  stroke-linecap="round"></path>
</svg>