<svg viewBox="0 0 64 64" xmlns="http://www.w3.org/2000/svg" aria-labelledby="title"
aria-describedby="desc" role="img" xmlns:xlink="http://www.w3.org/1999/xlink">
  <title>Split</title>
  <desc>A line styled icon from Orion Icon Library.</desc>
  <path d="M40 29H5l18-19 4.2 4-8.3 9H40v6z"
  stroke-width="2" stroke-miterlimit="10" stroke-linecap="round" stroke="#33cc33"
  fill="none" data-name="layer2" stroke-linejoin="round"></path>
  <path d="M41 54l-4.2-4 8.3-9H24v-6h35L41 54z" stroke-width="2"
  stroke-miterlimit="10" stroke-linecap="round" stroke="#003399" fill="none"
  data-name="layer1" stroke-linejoin="round"></path>
</svg>