<svg xmlns="http://www.w3.org/2000/svg" viewBox="0 0 64 64" aria-labelledby="title"
aria-describedby="desc" role="img" xmlns:xlink="http://www.w3.org/1999/xlink">
  <title>Spread Diagonal</title>
  <desc>A line styled icon from Orion Icon Library.</desc>
  <path data-name="layer2"
  fill="none" stroke="#33cc33" stroke-miterlimit="10" stroke-width="2" d="M38.121 33.879L50 45.758V41h6v15H41v-6h4.758L33.879 38.121l4.242-4.242z"
  stroke-linejoin="round" stroke-linecap="round"></path>
  <path data-name="layer1" fill="none" stroke="#003399" stroke-miterlimit="10"
  stroke-width="2" d="M23 8v6h-4.758l11.879 11.879-4.242 4.242L14 18.242V23H8V8h15z"
  stroke-linejoin="round" stroke-linecap="round"></path>
</svg>