<svg xmlns="http://www.w3.org/2000/svg" viewBox="0 0 64 64" aria-labelledby="title"
aria-describedby="desc" role="img" xmlns:xlink="http://www.w3.org/1999/xlink">
  <title>Sync Email</title>
  <desc>A line styled icon from Orion Icon Library.</desc>
  <path data-name="layer2"
  d="M37.8 58.5A12 12 0 0 0 58.3 50a12.1 12.1 0 0 0-.1-1.5v-.9m-3.4-6.1A12 12 0 0 0 34.3 50a12.1 12.1 0 0 0 .1 1.4v.5"
  fill="none" stroke="#33cc33" stroke-miterlimit="10" stroke-width="2" stroke-linejoin="round"
  stroke-linecap="round"></path>
  <path data-name="layer2" fill="none" stroke="#33cc33" stroke-miterlimit="10"
  stroke-width="2" d="M30.7 46.9l3.5 5.2 4.6-4.2M62 52.4l-3.5-5.2-4.6 4.2"
  stroke-linejoin="round" stroke-linecap="round"></path>
  <path data-name="layer1" fill="none" stroke="#003399" stroke-miterlimit="10"
  stroke-width="2" d="M31.4 48H2V12h54v22" stroke-linejoin="round" stroke-linecap="round"></path>
  <path data-name="layer1" fill="none" stroke="#003399" stroke-miterlimit="10"
  stroke-width="2" d="M2 12l27 20.6L56 12" stroke-linejoin="round" stroke-linecap="round"></path>
</svg>