<svg xmlns="http://www.w3.org/2000/svg" viewBox="0 0 64 64" aria-labelledby="title"
aria-describedby="desc" role="img" xmlns:xlink="http://www.w3.org/1999/xlink">
  <title>Team</title>
  <desc>A line styled icon from Orion Icon Library.</desc>
  <path data-name="layer2"
  d="M30 38a36.7 36.7 0 0 0 6-1.4c3.1-1.1 3-2.7 3-3.6v-2m-.8-21A8.9 8.9 0 0 1 44 8c4 0 9 2.4 9 8.6v5.8a11.4 11.4 0 0 1-4 8.6v1.9c0 1.2-.1 3.3 5.9 4.5S62 44 62 44v4H52"
  fill="none" stroke="#33cc33" stroke-miterlimit="10" stroke-width="2" stroke-linejoin="round"
  stroke-linecap="round"></path>
  <path data-name="layer1" d="M37.4 43.9c-7.5-1-7.4-3.7-7.4-5.1v-2.3c2.7-2.4 4-6.4 4-10.9v-7C34 11 28.9 8 24 8s-10 3-10 10.6v7c0 4.5 1.3 8.6 4 11V39c0 1.5.1 3.9-7.4 4.9S2 52 2 52v4h44v-4s0-6.8-8.6-8.1z"
  fill="none" stroke="#003399" stroke-miterlimit="10" stroke-width="2" stroke-linejoin="round"
  stroke-linecap="round"></path>
</svg>