<svg xmlns="http://www.w3.org/2000/svg" viewBox="0 0 64 64" aria-labelledby="title"
aria-describedby="desc" role="img" xmlns:xlink="http://www.w3.org/1999/xlink">
  <title>Ticket</title>
  <desc>A line styled icon from Orion Icon Library.</desc>
  <path data-name="layer2"
  d="M55 18.7A6.9 6.9 0 0 1 45.3 9l-7-7L2 38.3l7 7a6.9 6.9 0 0 1 9.7 9.7l7 7L62 25.7z"
  fill="none" stroke="#33cc33" stroke-miterlimit="10" stroke-width="2" stroke-linejoin="round"
  stroke-linecap="round"></path>
  <path data-name="layer1" d="M30.6 46a3 3 0 0 1-4.2 0L18 37.6a3 3 0 0 1 0-4.2L33.4 18a3 3 0 0 1 4.2 0l8.4 8.4a3 3 0 0 1 0 4.2z"
  fill="none" stroke="#003399" stroke-miterlimit="10" stroke-width="2" stroke-linejoin="round"
  stroke-linecap="round"></path>
</svg>