<svg xmlns="http://www.w3.org/2000/svg" viewBox="0 0 64 64" aria-labelledby="title"
aria-describedby="desc" role="img" xmlns:xlink="http://www.w3.org/1999/xlink">
  <title>Twitch</title>
  <desc>A color styled icon from Orion Icon Library.</desc>
  <path data-name="layer1"
  d="M46.5 55.594H34l-8.4 8.4h-8.4v-8.4H2v-44.5l4.2-11.1h57v39zm11.1-19.4v-30.6H11.7v40.3h12.5v8.3l8.3-8.3h15.3z"
  fill="#6441a4"></path>
  <path data-name="layer1" d="M42.3 16.694v16.7h5.6v-16.7zM27 33.394h5.6v-16.7H27z"
  fill="#6441a4"></path>
</svg>