<svg xmlns="http://www.w3.org/2000/svg" viewBox="0 0 64 64" aria-labelledby="title"
aria-describedby="desc" role="img" xmlns:xlink="http://www.w3.org/1999/xlink">
  <title>Unavailable</title>
  <desc>A line styled icon from Orion Icon Library.</desc>
  <path data-name="layer1"
  d="M32 2a30 30 0 1 0 30 30A30.034 30.034 0 0 0 32 2zm0 7.059a22.82 22.82 0 0 1 13.524 4.425l-32.04 32.04A22.925 22.925 0 0 1 32 9.06zm0 45.883a22.815 22.815 0 0 1-13.523-4.426l32.039-32.04A22.926 22.926 0 0 1 32 54.942z"
  fill="none" stroke="#003399" stroke-miterlimit="10" stroke-width="2" stroke-linejoin="round"
  stroke-linecap="round"></path>
</svg>