<svg xmlns="http://www.w3.org/2000/svg" viewBox="0 0 64 64" aria-labelledby="title"
aria-describedby="desc" role="img" xmlns:xlink="http://www.w3.org/1999/xlink">
  <title>User</title>
  <desc>A line styled icon from Orion Icon Library.</desc>
  <path data-name="layer1"
  d="M46 26c0 6.1-3.4 11.5-7 14.8V44c0 2 1 5.1 11 7a15.5 15.5 0 0 1 12 11H2a13.4 13.4 0 0 1 11-11c10-1.8 12-5 12-7v-3.2c-3.6-3.3-7-8.6-7-14.8v-9.6C18 6 25.4 2 32 2s14 4 14 14.4z"
  fill="none" stroke="#003399" stroke-miterlimit="10" stroke-width="2" stroke-linejoin="round"
  stroke-linecap="round"></path>
</svg>